{
	"id": "notokenanim",
	"name": "notokenanim",
	"title": "No Token Animations",
	"description": "Provides an option to disable token movement animations.",
	"version": "3.4",
	"authors": [{"name": "Kim Mantas"}],
	"scripts": ["main.js"],
	"minimumCoreVersion": "10",
	"compatibleCoreVersion": "11",
	"compatibility": {
		"minimum": 10,
		"verified": 11
	},
	"url": "https://bitbucket.org/Fyorl/notokenanim",
	"manifest": "https://bitbucket.org/Fyorl/notokenanim/raw/master/module.json",
	"download": "https://bitbucket.org/Fyorl/notokenanim/get/3.4.zip"
}
